…
```
## Warning: package 'skimr' was built under R version 4.2.2
```


```r
mice_data_clean <- janitor::clean_names(mice_data)
mice_data_clean
```

```
## # A tibble: 1,080 × 82
##    mouse_id dyrk1a_n itsn1_n bdnf_n nr1_n nr2a_n p_akt_n p_bra…¹ p_cam…² p_cre…³
##    <chr>       <dbl>   <dbl>  <dbl> <dbl>  <dbl>   <dbl>   <dbl>   <dbl>   <dbl>
##  1 309_1       0.504   0.747  0.430  2.82   5.99   0.219   0.178    2.37   0.232
##  2 309_2       0.515   0.689  0.412  2.79   5.69   0.212   0.173    2.29   0.227
##  3 309_3       0.509   0.730  0.418  2.69   5.62   0.209   0.176    2.28   0.230
##  4 309_4       0.442   0.617  0.359  2.47   4.98   0.223   0.176    2.15   0.207
##  5 309_5       0.435   0.617  0.359  2.37   4.72   0.213   0.174    2.13   0.192
##  6 309_6       0.448   0.628  0.367  2.39   4.81   0.219   0.176    2.14   0.195
##  7 309_7       0.428   0.574  0.343  2.33   4.47   0.225   0.184    2.01   0.196
##  8 309_8       0.417   0.564  0.328  2.26   4.27   0.215   0.180    2.01   0.190
##  9 309_9       0.386   0.538  0.318  2.13   4.06   0.207   0.168    1.86   0.181
## 10 309_10      0.381   0.499  0.362  2.10   3.60   0.228   0.188    1.72   0.188
## # … with 1,070 more rows, 72 more variables: p_elk_n <dbl>, p_erk_n <dbl>,
## #   p_jnk_n <dbl>, pkca_n <dbl>, p_mek_n <dbl>, p_nr1_n <dbl>, p_nr2a_n <dbl>,
## #   p_nr2b_n <dbl>, p_pkcab_n <dbl>, p_rsk_n <dbl>, akt_n <dbl>, braf_n <dbl>,
## #   camkii_n <dbl>, creb_n <dbl>, elk_n <dbl>, erk_n <dbl>, gsk3b_n <dbl>,
## #   jnk_n <dbl>, mek_n <dbl>, trka_n <dbl>, rsk_n <dbl>, app_n <dbl>,
## #   bcatenin_n <dbl>, sod1_n <dbl>, mtor_n <dbl>, p38_n <dbl>, p_mtor_n <dbl>,
## #   dscr1_n <dbl>, ampka_n <dbl>, nr2b_n <dbl>, p_numb_n <dbl>, …
```


```r
names(mice_data_clean) = gsub(pattern = "_n", replacement = "", x = names(mice_data_clean))
mice_data_clean
```

```
## # A tibble: 1,080 × 82
##    mouse_id dyrk1a itsn1  bdnf   nr1  nr2a p_akt p_braf p_camkii p_creb p_elk
##    <chr>     <dbl> <dbl> <dbl> <dbl> <dbl> <dbl>  <dbl>    <dbl>  <dbl> <dbl>
##  1 309_1     0.504 0.747 0.430  2.82  5.99 0.219  0.178     2.37  0.232  1.75
##  2 309_2     0.515 0.689 0.412  2.79  5.69 0.212  0.173     2.29  0.227  1.60
##  3 309_3     0.509 0.730 0.418  2.69  5.62 0.209  0.176     2.28  0.230  1.56
##  4 309_4     0.442 0.617 0.359  2.47  4.98 0.223  0.176     2.15  0.207  1.60
##  5 309_5     0.435 0.617 0.359  2.37  4.72 0.213  0.174     2.13  0.192  1.50
##  6 309_6     0.448 0.628 0.367  2.39  4.81 0.219  0.176     2.14  0.195  1.44
##  7 309_7     0.428 0.574 0.343  2.33  4.47 0.225  0.184     2.01  0.196  1.61
##  8 309_8     0.417 0.564 0.328  2.26  4.27 0.215  0.180     2.01  0.190  1.42
##  9 309_9     0.386 0.538 0.318  2.13  4.06 0.207  0.168     1.86  0.181  1.26
## 10 309_10    0.381 0.499 0.362  2.10  3.60 0.228  0.188     1.72  0.188  1.41
## # … with 1,070 more rows, and 71 more variables: p_erk <dbl>, p_jnk <dbl>,
## #   pkca <dbl>, p_mek <dbl>, pr1 <dbl>, pr2a <dbl>, pr2b <dbl>, p_pkcab <dbl>,
## #   p_rsk <dbl>, akt <dbl>, braf <dbl>, camkii <dbl>, creb <dbl>, elk <dbl>,
## #   erk <dbl>, gsk3b <dbl>, jnk <dbl>, mek <dbl>, trka <dbl>, rsk <dbl>,
## #   app <dbl>, bcatenin <dbl>, sod1 <dbl>, mtor <dbl>, p38 <dbl>, p_mtor <dbl>,
## #   dscr1 <dbl>, ampka <dbl>, nr2b <dbl>, pumb <dbl>, raptor <dbl>,
## #   tiam1 <dbl>, p_p70s6 <dbl>, numb <dbl>, p70s6 <dbl>, p_gsk3b <dbl>, …
```
…
#Looking at classes of data

```r
mice_data_clean$genotype <- as.character(mice_data_clean$genotype)
mice_data_clean$treatment <- as.character(mice_data_clean$treatment)
mice_data_clean$behavior <- as.character(mice_data_clean$behavior)
mice_data_clean$class <- as.character(mice_data_clean$class)
mice_data_clean
```

```
## # A tibble: 1,080 × 82
##    mouse_id dyrk1a itsn1  bdnf   nr1  nr2a p_akt p_braf p_camkii p_creb p_elk
##    <chr>     <dbl> <dbl> <dbl> <dbl> <dbl> <dbl>  <dbl>    <dbl>  <dbl> <dbl>
##  1 309_1     0.504 0.747 0.430  2.82  5.99 0.219  0.178     2.37  0.232  1.75
##  2 309_2     0.515 0.689 0.412  2.79  5.69 0.212  0.173     2.29  0.227  1.60
##  3 309_3     0.509 0.730 0.418  2.69  5.62 0.209  0.176     2.28  0.230  1.56
##  4 309_4     0.442 0.617 0.359  2.47  4.98 0.223  0.176     2.15  0.207  1.60
##  5 309_5     0.435 0.617 0.359  2.37  4.72 0.213  0.174     2.13  0.192  1.50
##  6 309_6     0.448 0.628 0.367  2.39  4.81 0.219  0.176     2.14  0.195  1.44
##  7 309_7     0.428 0.574 0.343  2.33  4.47 0.225  0.184     2.01  0.196  1.61
##  8 309_8     0.417 0.564 0.328  2.26  4.27 0.215  0.180     2.01  0.190  1.42
##  9 309_9     0.386 0.538 0.318  2.13  4.06 0.207  0.168     1.86  0.181  1.26
## 10 309_10    0.381 0.499 0.362  2.10  3.60 0.228  0.188     1.72  0.188  1.41
## # … with 1,070 more rows, and 71 more variables: p_erk <dbl>, p_jnk <dbl>,
## #   pkca <dbl>, p_mek <dbl>, pr1 <dbl>, pr2a <dbl>, pr2b <dbl>, p_pkcab <dbl>,
## #   p_rsk <dbl>, akt <dbl>, braf <dbl>, camkii <dbl>, creb <dbl>, elk <dbl>,
## #   erk <dbl>, gsk3b <dbl>, jnk <dbl>, mek <dbl>, trka <dbl>, rsk <dbl>,
## #   app <dbl>, bcatenin <dbl>, sod1 <dbl>, mtor <dbl>, p38 <dbl>, p_mtor <dbl>,
## #   dscr1 <dbl>, ampka <dbl>, nr2b <dbl>, pumb <dbl>, raptor <dbl>,
## #   tiam1 <dbl>, p_p70s6 <dbl>, numb <dbl>, p70s6 <dbl>, p_gsk3b <dbl>, …
```
…
```r
mice_data_clean
```

```
## # A tibble: 1,080 × 82
##    mouse_id dyrk1a itsn1  bdnf   nr1  nr2a p_akt p_braf p_camkii p_creb p_elk
##    <chr>     <dbl> <dbl> <dbl> <dbl> <dbl> <dbl>  <dbl>    <dbl>  <dbl> <dbl>
##  1 309_1     0.504 0.747 0.430  2.82  5.99 0.219  0.178     2.37  0.232  1.75
##  2 309_2     0.515 0.689 0.412  2.79  5.69 0.212  0.173     2.29  0.227  1.60
##  3 309_3     0.509 0.730 0.418  2.69  5.62 0.209  0.176     2.28  0.230  1.56
##  4 309_4     0.442 0.617 0.359  2.47  4.98 0.223  0.176     2.15  0.207  1.60
##  5 309_5     0.435 0.617 0.359  2.37  4.72 0.213  0.174     2.13  0.192  1.50
##  6 309_6     0.448 0.628 0.367  2.39  4.81 0.219  0.176     2.14  0.195  1.44
##  7 309_7     0.428 0.574 0.343  2.33  4.47 0.225  0.184     2.01  0.196  1.61
##  8 309_8     0.417 0.564 0.328  2.26  4.27 0.215  0.180     2.01  0.190  1.42
##  9 309_9     0.386 0.538 0.318  2.13  4.06 0.207  0.168     1.86  0.181  1.26
## 10 309_10    0.381 0.499 0.362  2.10  3.60 0.228  0.188     1.72  0.188  1.41
## # … with 1,070 more rows, and 71 more variables: p_erk <dbl>, p_jnk <dbl>,
## #   pkca <dbl>, p_mek <dbl>, pr1 <dbl>, pr2a <dbl>, pr2b <dbl>, p_pkcab <dbl>,
## #   p_rsk <dbl>, akt <dbl>, braf <dbl>, camkii <dbl>, creb <dbl>, elk <dbl>,
## #   erk <dbl>, gsk3b <dbl>, jnk <dbl>, mek <dbl>, trka <dbl>, rsk <dbl>,
## #   app <dbl>, bcatenin <dbl>, sod1 <dbl>, mtor <dbl>, p38 <dbl>, p_mtor <dbl>,
## #   dscr1 <dbl>, ampka <dbl>, nr2b <dbl>, pumb <dbl>, raptor <dbl>,
## #   tiam1 <dbl>, p_p70s6 <dbl>, numb <dbl>, p70s6 <dbl>, p_gsk3b <dbl>, …
```
